…
``` r
#In the sepsis_data set calculare the missing % for all variables
#change from wide to long format
#Sort by descendfing order

missing_summary <- sepsis_data %>%
  summarize(across(everything(), ~ mean(is.na(.x)) * 100)) %>%
  pivot_longer(everything(), names_to = "variable", values_to = "pct_missing") %>%
  arrange(desc(pct_missing))

missing_summary
```

    ## # A tibble: 43 × 2
    ##    variable         pct_missing
    ##    <chr>                  <dbl>
    ##  1 Bilirubin_direct        99.8
    ##  2 Fibrinogen              99.3
    ##  3 TroponinI               99.0
    ##  4 Bilirubin_total         98.5
    ##  5 Alkalinephos            98.4
    ##  6 AST                     98.4
    ##  7 Lactate                 97.3
    ##  8 PTT                     97.1
    ##  9 SaO2                    96.5
    ## 10 EtCO2                   96.3
    ## # ℹ 33 more rows
…
patient_coverage(sepsis_data, id_col = "patient_id")
```

    ## # A tibble: 42 × 2
    ##    variable    pct_coverage
    ##    <chr>              <dbl>
    ##  1 Age                100  
    ##  2 Gender             100  
    ##  3 ICULOS             100  
    ##  4 SepsisLabel        100  
    ##  5 source             100  
    ##  6 HospAdmTime        100.0
    ##  7 HR                 100.0
    ##  8 O2Sat              100.0
    ##  9 Resp                99.8
    ## 10 MAP                 99.7
    ## # ℹ 32 more rows
…
